{"count":13,"page":1,"page_size":10,"total_pages":2,"incidents":[{"id":"e32f24e8","title":"Assets can't be viewed on backend site","description":"Assets can't be viewed on backend site - server returns a 500 error","date":"2021-05-10T12:00:00.000Z","modified":"2021-07-18T00:57:38.701Z","scheduled":null,"severity":"partial-outage","affectedsystems":["adamrms-dashboard"],"resolved":true,"content":"<div class=\"update-block\">\n          <div class=\"update-block-date\">2021-05-10T13:13:00.000Z</div>\n          <div class=\"update-block-content\">\n            <div class=\"update-block-title\">Resolved</div>\n            <div class=\"update-block-body\">\n<p>Fix has been pushed</p>\n</div></div></div>\n<div class=\"update-block\">\n          <div class=\"update-block-date\">2021-05-10T12:00:00.000Z</div>\n          <div class=\"update-block-content\">\n            <div class=\"update-block-title\">Identified</div>\n            <div class=\"update-block-body\">\n<p>Cause has been traced to an issue with an earlier update</p>\n</div></div></div>\n"},{"id":"33fe435d","title":"File/Image uploads are failing","description":"File and Image uploads are failing","date":"2021-03-09T16:00:00.000Z","modified":"2021-07-18T00:57:38.697Z","scheduled":null,"severity":"partial-outage","affectedsystems":["adamrms-dashboard","adamrms-api"],"resolved":true,"content":"<div class=\"update-block\">\n          <div class=\"update-block-date\">2021-03-09T17:25:00.000Z</div>\n          <div class=\"update-block-content\">\n            <div class=\"update-block-title\">Resolved</div>\n            <div class=\"update-block-body\">\n<p>Uploader has been replaced, and uploads are succeeding again</p>\n</div></div></div>\n<div class=\"update-block\">\n          <div class=\"update-block-date\">2021-03-09T16:00:00.000Z</div>\n          <div class=\"update-block-content\">\n            <div class=\"update-block-title\">Identified</div>\n            <div class=\"update-block-body\">\n<p>Cause has been traced to an issue with the earlier migration</p>\n</div></div></div>\n"},{"id":"15f1d621","title":"AdamRMS down for migration to new Cloud Platform","description":"To resolve performance issues, AdamRMS is ending its trial of a serverless public cloud platform early and moving to a more traditional server stack","date":"2021-03-09T13:00:00.000Z","modified":"2021-07-18T00:57:38.695Z","scheduled":"2021-03-09T14:00:00.000Z","duration":155,"severity":"under-maintenance","affectedsystems":["adamrms-dashboard","adamrms-api","adamrms-app","adamrms-notifications","adamrms-public"],"resolved":true,"content":"<div class=\"update-block\">\n          <div class=\"update-block-date\">2021-03-09T16:35:00.000Z</div>\n          <div class=\"update-block-content\">\n            <div class=\"update-block-title\">Completed</div>\n            <div class=\"update-block-body\">\n<p>Migration was a success, systems are back online. Please report any issues via the normal support channels</p>\n</div></div></div>\n<div class=\"update-block\">\n          <div class=\"update-block-date\">2021-03-09T16:00:00.000Z</div>\n          <div class=\"update-block-content\">\n            <div class=\"update-block-title\">Troubleshooting</div>\n            <div class=\"update-block-body\">\n<p>An issue with a HTTP redirect is causing timeouts, updates are being pushed</p>\n</div></div></div>\n<div class=\"update-block\">\n          <div class=\"update-block-date\">2021-03-09T13:00:00.000Z</div>\n          <div class=\"update-block-content\">\n            <div class=\"update-block-title\">Planned</div>\n            <div class=\"update-block-body\">\n<p>Migration is planned</p>\n</div></div></div>\n"},{"id":"c0d0137e","title":"Poor pageload performance","description":"Pageload time is slower than usual for AdamRMS dashboard users","date":"2021-03-07T10:00:00.000Z","modified":"2021-07-18T00:57:38.694Z","scheduled":null,"severity":"degraded-performance","affectedsystems":["adamrms-dashboard"],"resolved":true,"content":"<div class=\"update-block\">\n          <div class=\"update-block-date\">2021-03-07T10:00:00.000Z</div>\n          <div class=\"update-block-content\">\n            <div class=\"update-block-title\">Completed</div>\n            <div class=\"update-block-body\">\n<p>This has been resolved by a migration to a new server platform. Migration has meant pageload times have dropped to around 12% of previous levels. For example loading a large asset list has dropped from 4.5s to 521 ms.</p>\n</div></div></div>\n<div class=\"update-block\">\n          <div class=\"update-block-date\">2021-03-07T10:00:00.000Z</div>\n          <div class=\"update-block-content\">\n            <div class=\"update-block-title\">Identified</div>\n            <div class=\"update-block-body\">\n<p>Cause has been traced to increased latency on the interconnect between the production website servers and the database. We're working with the server suppliers to develop a fix.</p>\n</div></div></div>\n"},{"id":"372d0762","title":"AdamRMS unavailable","description":"Due to an unplanned platform migration, AdamRMS was breifly unavailable","date":"2020-12-29T13:03:00.000Z","modified":"2021-07-18T00:57:38.691Z","scheduled":null,"duration":19,"severity":"major-outage","affectedsystems":["adamrms-dashboard","adamrms-api","adamrms-app","adamrms-notifications"],"resolved":true,"content":"<div class=\"update-block\">\n          <div class=\"update-block-date\">2020-12-29T13:22:00.000Z</div>\n          <div class=\"update-block-content\">\n            <div class=\"update-block-title\">Resolved</div>\n            <div class=\"update-block-body\">\n<p>Service is back online and responding to requests, the alpha was promoted to the production service</p>\n</div></div></div>\n<div class=\"update-block\">\n          <div class=\"update-block-date\">2020-12-29T13:03:00.000Z</div>\n          <div class=\"update-block-content\">\n            <div class=\"update-block-title\">Ongoing</div>\n            <div class=\"update-block-body\">\n<p>Due to a configuration error with the service's SSL certificate at a CDN level, an attempt to setup a alpha build of the production service to test a new cloud platform provider is inadvertently causing requests to the main production server to fail.</p>\n</div></div></div>\n"},{"id":"3273411a","title":"Project Status not showing in AdamRMS","description":"Attempts to view/change project statuses in AdamRMS are failing - colours navigation menu are also affected","date":"2020-12-29T13:03:00.000Z","modified":"2021-07-18T00:57:38.692Z","scheduled":null,"duration":108,"severity":"degraded-performance","affectedsystems":["adamrms-dashboard"],"resolved":true,"content":"<div class=\"update-block\">\n          <div class=\"update-block-date\">2020-12-29T14:52:00.000Z</div>\n          <div class=\"update-block-content\">\n            <div class=\"update-block-title\">Resolved</div>\n            <div class=\"update-block-body\">\n<p>A bugfix has been pushed to the live service</p>\n</div></div></div>\n<div class=\"update-block\">\n          <div class=\"update-block-date\">2020-12-29T13:03:00.000Z</div>\n          <div class=\"update-block-content\">\n            <div class=\"update-block-title\">Ongoing</div>\n            <div class=\"update-block-body\">\n<p>Cause has been traced to a minor bug in a software update</p>\n</div></div></div>\n"},{"id":"20d4bd6f","title":"AdamRMS unavailable","description":"an upgrade to the RAM available on the host server, performed by the server provider, caused the database to be briefly unavailable","date":"2020-10-21T17:48:00.000Z","modified":"2021-07-18T00:57:38.690Z","scheduled":null,"duration":1,"severity":"major-outage","affectedsystems":["adamrms-dashboard","adamrms-api","adamrms-app","adamrms-notifications"],"resolved":true,"content":"<div class=\"update-block\">\n          <div class=\"update-block-date\">2020-10-21T17:49:00.000Z</div>\n          <div class=\"update-block-content\">\n            <div class=\"update-block-title\">Resolved</div>\n            <div class=\"update-block-body\">\n<p>Server has come back online</p>\n</div></div></div>\n"},{"id":"31a02330","title":"AdamRMS down for maintenance to database","description":"To resolve intermittent database issues, AdamRMS's database will be migrated to a new cluster requiring downtime","date":"2020-09-10T10:45:00.000Z","modified":"2021-07-18T00:57:38.689Z","scheduled":"2020-09-10T10:45:00.000Z","duration":120,"severity":"under-maintenance","affectedsystems":["adamrms-dashboard","adamrms-api","adamrms-app","adamrms-notifications"],"resolved":true,"content":"<p>See https://status.jbithell.com/incidents/3e2e32c5 for details of original incident</p>\n<div class=\"update-block\">\n          <div class=\"update-block-date\">2020-09-10T11:20:00.000Z</div>\n          <div class=\"update-block-content\">\n            <div class=\"update-block-title\">Paused</div>\n            <div class=\"update-block-body\">\n<p>Migration has been paused and the dashboard brought back online</p>\n</div></div></div>\n"},{"id":"3e2e32c5","title":"AdamRMS failing to load intermittently","description":"AdamRMS's database is experiencing issues relating to PDF generation which will be resolved in a later maintenance","date":"2020-09-10T05:39:00.000Z","modified":"2021-07-18T00:57:38.685Z","scheduled":null,"severity":"degraded-performance","affectedsystems":["adamrms-dashboard"],"resolved":true,"content":"<div class=\"update-block\">\n          <div class=\"update-block-date\">2020-09-15T18:00:00.000Z</div>\n          <div class=\"update-block-content\">\n            <div class=\"update-block-title\">Updated</div>\n            <div class=\"update-block-body\">\n<p>Issues have been resolved for all areas except PDF generation which is set to be resolved in planned maintenance</p>\n</div></div></div>\n<div class=\"update-block\">\n          <div class=\"update-block-date\">2020-09-15T13:40:00.000Z</div>\n          <div class=\"update-block-content\">\n            <div class=\"update-block-title\">Investigating</div>\n            <div class=\"update-block-body\">\n<p>Issues have been resolved with notifications, the api and the app</p>\n</div></div></div>\n<div class=\"update-block\">\n          <div class=\"update-block-date\">2020-09-10T09:50:00.000Z</div>\n          <div class=\"update-block-content\">\n            <div class=\"update-block-title\">Investigating</div>\n            <div class=\"update-block-body\">\n<p>Engineering have begun to bring a new database cluster online</p>\n</div></div></div>\n<div class=\"update-block\">\n          <div class=\"update-block-date\">2020-09-10T05:39:00.000Z</div>\n          <div class=\"update-block-content\">\n            <div class=\"update-block-title\">Notified</div>\n            <div class=\"update-block-body\">\n<p>Automated montioring triggered a notification of degraded performance for AdamRMS</p>\n</div></div></div>\n"},{"id":"7e52f094","title":"AdamRMS App shows 'error-error'","description":"AdamRMS's security system is preventing the app from connecting","date":"2020-09-03T08:46:00.000Z","modified":"2021-07-18T00:57:38.684Z","scheduled":null,"severity":"degraded-performance","affectedsystems":["adamrms-app"],"resolved":true,"content":"<!-- General content -->\n<p>AdamRMS's security system is preventing the app from connecting</p>\n<!--- language code: en -->\n<div class=\"update-block\">\n          <div class=\"update-block-date\">2020-09-03T09:27:00.000Z</div>\n          <div class=\"update-block-content\">\n            <div class=\"update-block-title\">Resolved</div>\n            <div class=\"update-block-body\">\n<p>An update has been submitted to the stores to resolve this</p>\n</div></div></div>\n<div class=\"update-block\">\n          <div class=\"update-block-date\">2020-09-03T08:49:00.000Z</div>\n          <div class=\"update-block-content\">\n            <div class=\"update-block-title\">Workaround</div>\n            <div class=\"update-block-body\">\n<p>Logging out then back into the app is confirmed to resolve the issue. Severity is being downgraded to degraded performance</p>\n</div></div></div>\n<div class=\"update-block\">\n          <div class=\"update-block-date\">2020-09-03T08:46:00.000Z</div>\n          <div class=\"update-block-content\">\n            <div class=\"update-block-title\">Notified</div>\n            <div class=\"update-block-body\">\n<p>Automated montioring and a client both triggered a token expiry exception</p>\n</div></div></div>\n"}]}