{"count":8,"page":3,"page_size":3,"total_pages":3,"periods":[{"id":"2020-6","incidents":[{"id":"7a8ae47b","title":"AdamRMS down for maintenance to database","description":"In order to support multiple currencies, AdamRMS is down for a database upgrade","date":"2020-06-09T12:00:00.000Z","modified":"2021-07-18T00:57:38.680Z","scheduled":"2020-06-09T12:45:00.000Z","duration":375,"severity":"under-maintenance","affectedsystems":["adamrms-dashboard","adamrms-api","adamrms-app"],"resolved":true,"content":"<!--- language code: en -->\n<div class=\"update-block\">\n          <div class=\"update-block-date\">2020-06-09T22:30:00.007Z</div>\n          <div class=\"update-block-content\">\n            <div class=\"update-block-title\">Resolved</div>\n            <div class=\"update-block-body\">\n<p>Build v1.12.02 has entered production, maintenance is now completed</p>\n</div></div></div>\n<div class=\"update-block\">\n          <div class=\"update-block-date\">2020-06-09T22:14:00.007Z</div>\n          <div class=\"update-block-content\">\n            <div class=\"update-block-title\">Ongoing</div>\n            <div class=\"update-block-body\">\n<p>The migration took longer than expected due to issues encountered adjusting the asset editing functionality. The migration is now complete and the caches are now being rebuilt which should be resolved by 22:30 UTC.</p>\n</div></div></div>\n<div class=\"update-block\">\n          <div class=\"update-block-date\">2020-06-09T15:47:00.347Z</div>\n          <div class=\"update-block-content\">\n            <div class=\"update-block-title\">Ongoing</div>\n            <div class=\"update-block-body\">\n<p>The migration is taking longer than expected - downtime duration is revised to continue until 18:30 UTC</p>\n</div></div></div>\n"}],"order":12,"count":1},{"id":"2020-4","incidents":[{"id":"6d4efd11","title":"AdamRMS Homepage not displaying correctly","description":"We've detected a problem with the cache meaning the project view displays instead of the homepage","date":"2020-04-06T15:12:27.347Z","modified":"2021-07-18T00:57:38.676Z","scheduled":null,"severity":"partial-outage","affectedsystems":["adamrms-dashboard"],"resolved":true,"content":"<p>Project view displaying instead of homepage</p>\n<!--- language code: en -->\n<!-- Definition of the Incident Updates -->\n<div class=\"update-block\">\n          <div class=\"update-block-date\">2020-04-06T16:00:27.347Z</div>\n          <div class=\"update-block-content\">\n            <div class=\"update-block-title\">Resolved</div>\n            <div class=\"update-block-body\">\n<p>Tweak applied and cache regenerating</p>\n</div></div></div>\n<div class=\"update-block\">\n          <div class=\"update-block-date\">2020-04-06T15:20:27.347Z</div>\n          <div class=\"update-block-content\">\n            <div class=\"update-block-title\">Monitoring</div>\n            <div class=\"update-block-body\">\n<p>The broken component has been located and a fix is being developed</p>\n</div></div></div>\n"}],"order":14,"count":1}]}