{"count":8,"page":2,"page_size":3,"total_pages":3,"periods":[{"id":"2020-10","incidents":[{"id":"20d4bd6f","title":"AdamRMS unavailable","description":"an upgrade to the RAM available on the host server, performed by the server provider, caused the database to be briefly unavailable","date":"2020-10-21T17:48:00.000Z","modified":"2021-07-18T00:57:38.690Z","scheduled":null,"duration":1,"severity":"major-outage","affectedsystems":["adamrms-dashboard","adamrms-api","adamrms-app","adamrms-notifications"],"resolved":true,"content":"<div class=\"update-block\">\n          <div class=\"update-block-date\">2020-10-21T17:49:00.000Z</div>\n          <div class=\"update-block-content\">\n            <div class=\"update-block-title\">Resolved</div>\n            <div class=\"update-block-body\">\n<p>Server has come back online</p>\n</div></div></div>\n"}],"order":8,"count":1},{"id":"2020-9","incidents":[{"id":"31a02330","title":"AdamRMS down for maintenance to database","description":"To resolve intermittent database issues, AdamRMS's database will be migrated to a new cluster requiring downtime","date":"2020-09-10T10:45:00.000Z","modified":"2021-07-18T00:57:38.689Z","scheduled":"2020-09-10T10:45:00.000Z","duration":120,"severity":"under-maintenance","affectedsystems":["adamrms-dashboard","adamrms-api","adamrms-app","adamrms-notifications"],"resolved":true,"content":"<p>See https://status.jbithell.com/incidents/3e2e32c5 for details of original incident</p>\n<div class=\"update-block\">\n          <div class=\"update-block-date\">2020-09-10T11:20:00.000Z</div>\n          <div class=\"update-block-content\">\n            <div class=\"update-block-title\">Paused</div>\n            <div class=\"update-block-body\">\n<p>Migration has been paused and the dashboard brought back online</p>\n</div></div></div>\n"},{"id":"3e2e32c5","title":"AdamRMS failing to load intermittently","description":"AdamRMS's database is experiencing issues relating to PDF generation which will be resolved in a later maintenance","date":"2020-09-10T05:39:00.000Z","modified":"2021-07-18T00:57:38.685Z","scheduled":null,"severity":"degraded-performance","affectedsystems":["adamrms-dashboard"],"resolved":true,"content":"<div class=\"update-block\">\n          <div class=\"update-block-date\">2020-09-15T18:00:00.000Z</div>\n          <div class=\"update-block-content\">\n            <div class=\"update-block-title\">Updated</div>\n            <div class=\"update-block-body\">\n<p>Issues have been resolved for all areas except PDF generation which is set to be resolved in planned maintenance</p>\n</div></div></div>\n<div class=\"update-block\">\n          <div class=\"update-block-date\">2020-09-15T13:40:00.000Z</div>\n          <div class=\"update-block-content\">\n            <div class=\"update-block-title\">Investigating</div>\n            <div class=\"update-block-body\">\n<p>Issues have been resolved with notifications, the api and the app</p>\n</div></div></div>\n<div class=\"update-block\">\n          <div class=\"update-block-date\">2020-09-10T09:50:00.000Z</div>\n          <div class=\"update-block-content\">\n            <div class=\"update-block-title\">Investigating</div>\n            <div class=\"update-block-body\">\n<p>Engineering have begun to bring a new database cluster online</p>\n</div></div></div>\n<div class=\"update-block\">\n          <div class=\"update-block-date\">2020-09-10T05:39:00.000Z</div>\n          <div class=\"update-block-content\">\n            <div class=\"update-block-title\">Notified</div>\n            <div class=\"update-block-body\">\n<p>Automated montioring triggered a notification of degraded performance for AdamRMS</p>\n</div></div></div>\n"},{"id":"7e52f094","title":"AdamRMS App shows 'error-error'","description":"AdamRMS's security system is preventing the app from connecting","date":"2020-09-03T08:46:00.000Z","modified":"2021-07-18T00:57:38.684Z","scheduled":null,"severity":"degraded-performance","affectedsystems":["adamrms-app"],"resolved":true,"content":"<!-- General content -->\n<p>AdamRMS's security system is preventing the app from connecting</p>\n<!--- language code: en -->\n<div class=\"update-block\">\n          <div class=\"update-block-date\">2020-09-03T09:27:00.000Z</div>\n          <div class=\"update-block-content\">\n            <div class=\"update-block-title\">Resolved</div>\n            <div class=\"update-block-body\">\n<p>An update has been submitted to the stores to resolve this</p>\n</div></div></div>\n<div class=\"update-block\">\n          <div class=\"update-block-date\">2020-09-03T08:49:00.000Z</div>\n          <div class=\"update-block-content\">\n            <div class=\"update-block-title\">Workaround</div>\n            <div class=\"update-block-body\">\n<p>Logging out then back into the app is confirmed to resolve the issue. Severity is being downgraded to degraded performance</p>\n</div></div></div>\n<div class=\"update-block\">\n          <div class=\"update-block-date\">2020-09-03T08:46:00.000Z</div>\n          <div class=\"update-block-content\">\n            <div class=\"update-block-title\">Notified</div>\n            <div class=\"update-block-body\">\n<p>Automated montioring and a client both triggered a token expiry exception</p>\n</div></div></div>\n"}],"order":9,"count":3},{"id":"2020-8","incidents":[{"id":"023986a2","title":"AdamRMS database issue","description":"AdamRMS exceeded server limits, so was taken down for a server upgrade","date":"2020-08-31T12:25:00.000Z","modified":"2021-07-18T00:57:38.682Z","scheduled":null,"severity":"major-outage","affectedsystems":["adamrms-dashboard","adamrms-api","adamrms-app","adamrms-notifications"],"resolved":true,"content":"<!-- General content -->\n<p>AdamRMS exceeded server limits and crashed</p>\n<!--- language code: en -->\n<div class=\"update-block\">\n          <div class=\"update-block-date\">2020-08-31T13:36:00.000Z</div>\n          <div class=\"update-block-content\">\n            <div class=\"update-block-title\">Resolved</div>\n            <div class=\"update-block-body\">\n<p>Monitoring suggests that fault has been resolved by the upgrade and shouldn't re-occur</p>\n</div></div></div>\n<div class=\"update-block\">\n          <div class=\"update-block-date\">2020-08-31T13:32:00.000Z</div>\n          <div class=\"update-block-content\">\n            <div class=\"update-block-title\">Monitoring</div>\n            <div class=\"update-block-body\">\n<p>Server upgrade has been completed - service is recovering</p>\n</div></div></div>\n<div class=\"update-block\">\n          <div class=\"update-block-date\">2020-08-31T12:56:00.000Z</div>\n          <div class=\"update-block-content\">\n            <div class=\"update-block-title\">Ongoing</div>\n            <div class=\"update-block-body\">\n<p>The primary backup has been completed and a server upgrade was triggered</p>\n</div></div></div>\n<div class=\"update-block\">\n          <div class=\"update-block-date\">2020-08-31T12:43:00.000Z</div>\n          <div class=\"update-block-content\">\n            <div class=\"update-block-title\">Ongoing</div>\n            <div class=\"update-block-body\">\n<p>A primary server backup has commenced, this is an extra backup on top of the existing daily database backups</p>\n</div></div></div>\n<div class=\"update-block\">\n          <div class=\"update-block-date\">2020-08-31T12:42:00.000Z</div>\n          <div class=\"update-block-content\">\n            <div class=\"update-block-title\">Investigating</div>\n            <div class=\"update-block-body\">\n<p>Downtime has been agreed with notifying client, and a backup has commenced</p>\n</div></div></div>\n<div class=\"update-block\">\n          <div class=\"update-block-date\">2020-08-31T12:30:00.000Z</div>\n          <div class=\"update-block-content\">\n            <div class=\"update-block-title\">Investigating</div>\n            <div class=\"update-block-body\">\n<p>Investigation has commenced</p>\n</div></div></div>\n<div class=\"update-block\">\n          <div class=\"update-block-date\">2020-08-31T12:28:00.000Z</div>\n          <div class=\"update-block-content\">\n            <div class=\"update-block-title\">Notified</div>\n            <div class=\"update-block-body\">\n<p>A client got in touch to report that the system had crashed when they'd attempted to add assets to a project</p>\n</div></div></div>\n<div class=\"update-block\">\n          <div class=\"update-block-date\">2020-08-31T12:25:00.000Z</div>\n          <div class=\"update-block-content\">\n            <div class=\"update-block-title\">Notified</div>\n            <div class=\"update-block-body\">\n<p>Automated monitoring was triggered when a routine MySQL upload test failed</p>\n</div></div></div>\n"}],"order":10,"count":1}]}